{
	"from user" : "kenil",
	"to user" : "shah",
	"message" : "hello"
};null

{
	"from user" : "shah",
	"to user" : "kenil",
	"message" : "hii"
};null

{
	"from user" : "shah",
	"to user" : "kenil",
	"message" : "heyy i am shah"
};null


{
	"from user" : "shah",
	"to user" : "kenil",
	"message" : "how are you kenil??"
};null

{
	"from user" : "kenil",
	"to user" : "shah",
	"message" : "hey i am keni"
};null


{
	"from user" : "kenil",
	"to user" : "shah",
	"message" : "how are u shah"
};null


{
	"from user" : "kenil",
	"to user" : "shah",
	"message" : "hdfsdf"
};null


{
	"from user" : "kenil",
	"to user" : "shah",
	"message" : "dfsdf"
};null


{
	"from user" : "kenil",
	"to user" : "shah",
	"message" : "dsfsdf"
};null


{
	"from user" : "kenil",
	"to user" : "shah",
	"message" : "sdfsdf"
};null


{
	"from user" : "kenil",
	"to user" : "shah",
	"message" : "dfsdf"
};null

{
	"from user" : "shah",
	"to user" : "kenil",
	"message" : "heyy"
};null

{
	"from user" : "kenil",
	"to user" : "shah",
	"message" : "hello i am shah"
};null


{
	"from user" : "shah",
	"to user" : "kenil",
	"message" : "hello i am kenil"
};null

{
	"from user" : "kenil",
	"to user" : "shah",
	"message" : "hello"
};null

{
	"from user" : "kenil",
	"to user" : "shah",
	"message" : "hii"
};null


{
	"from user" : "kenil",
	"to user" : "shah",
	"message" : "hello"
};null

